Name,Division,BodyweightKg,WeightClassKg,Squat1Kg,Squat2Kg,Squat3Kg,Best3SquatKg,Bench1Kg,Bench2Kg,Bench3Kg,Best3BenchKg,Deadlift1Kg,Deadlift2Kg,Deadlift3Kg,Best3DeadliftKg,TotalKg,Place,Sex,Event,Equipment,BirthDate,State,Country
Emma Goodwin,F-E-Open,51.7,52,150,160,-167.5,160,-75,77.5,82.5,82.5,170,180,-190,180,422.5,1,F,SBD,Single-ply,,,
Linzi Waite,F-E-Open,51.5,52,115,-122.5,122.5,122.5,67.5,72.5,75,75,110,120,125,125,322.5,2,F,SBD,Single-ply,,,
Louise Edwards #1,F-E-M1,51.3,52,125,132.5,,132.5,60,65,67.5,67.5,130,140,150,150,350,1,F,SBD,Single-ply,1978-10-12,,
Amanda Hughes,F-E-M1,50.8,52,105,115,120,120,67.5,72.5,-75,72.5,112.5,122.5,127.5,127.5,320,2,F,SBD,Single-ply,1979-06-04,,
Michelle Franklin,F-E-M2,51.5,52,110,120,125,125,60,65,67.5,67.5,120,130,140,140,332.5,1,F,SBD,Single-ply,1966-01-15,NM,England
Jenny Hunter,F-E-M3,51.9,52,92.5,102.5,110,110,65,70,75,75,125,135,-143,135,320,1,F,SBD,Single-ply,,EM,England
Ellie Steel,F-E-Open,56.6,57,185,192.5,,192.5,130,137.5,-141.5,137.5,165,175,-180,175,505,1,F,SBD,Single-ply,,SM,England
Felicity Sadler,F-E-Open,55.3,57,102.5,107.5,112.5,112.5,60,-67.5,67.5,67.5,105,115,122.5,122.5,302.5,2,F,SBD,Single-ply,,,England
Faye Jordan,F-E-Open,62.2,63,137.5,-142.5,142.5,142.5,100,107.5,112.5,112.5,147.5,152.5,155,155,410,1,F,SBD,Single-ply,,EM,England
Lauren Elder,F-E-Open,62.8,63,160,-167.5,-167.5,160,-75,75,-80,75,160,170,-177.5,170,405,2,F,SBD,Single-ply,,,England
Lucy Hart,F-E-Open,61.2,63,150,160,-170,160,-77.5,77.5,-82.5,77.5,145,162.5,-172.5,162.5,400,3,F,SBD,Single-ply,,,England
Ana Rojo-Echeburua,F-E-Open,62.9,63,140,145,147.5,147.5,72.5,-77.5,-77.5,72.5,147.5,152.5,-157.5,152.5,372.5,4,F,SBD,Single-ply,,,England
Galit Goldshmid,F-E-M1,60.8,63,130,140,145,145,80,95,-102.5,95,155,165,-170,165,405,1,F,SBD,Single-ply,1977-01-07,,England
Amelia Maycock,F-E-U23,61.6,63,125,132.5,140,140,57.5,-70,70,70,145,155,162.5,162.5,372.5,1,F,SBD,Single-ply,,,England
Holly Bryans,F-E-Open,70.6,72,180,190,195,195,100,110,112.5,112.5,170,180,192.5,192.5,500,1,F,SBD,Single-ply,,NM,England
Kimberley Cowell,F-E-Open,69.8,72,-155,155,162.5,162.5,115,120,-122.5,120,155,167.5,-180,167.5,450,2,F,SBD,Single-ply,,NW,England
Rachel Steedman,F-E-Open,71.2,72,-155,162.5,170,170,105,110,112.5,112.5,142.5,150,-155,150,432.5,3,F,SBD,Single-ply,,,England
Joanne Frost,F-E-M1,70.7,72,145,155,-160,155,87.5,90,92.5,92.5,-145,150,152.5,152.5,400,1,F,SBD,Single-ply,1971-01-03,YNE,England
Catherine Gordon,F-E-M1,70.6,72,-137.5,-140,140,140,60,82.5,87.5,87.5,150,157.5,160,160,387.5,2,F,SBD,Single-ply,,EM,England
Wendie Kirkland,F-E-M1,70.9,72,132.5,140,147.5,147.5,-95,95,100,100,135,140,-145,140,387.5,3,F,SBD,Single-ply,,NM,England
Joy Mineo,F-E-M2,66,72,112.5,120,,120,70,75,,75,150,160,,160,355,1,F,SBD,Wraps,,NM,England
Maureen Gordon,F-E-M2,70.6,72,112.5,117.5,122.5,122.5,77.5,82.5,87.5,87.5,127.5,132.5,137.5,137.5,347.5,2,F,SBD,Single-ply,,,England
Kelly Clark #1,F-E-M2,70.2,72,110,-117.5,-117.5,110,65,67.5,70,70,115,-120,-120,115,295,3,F,SBD,Single-ply,,YNE,England
Lizzie Jones,F-E-U23,71.1,72,160,172.5,180.5,180.5,-100,100,105.5,105.5,172.5,182.5,191,191,477,1,F,SBD,Single-ply,,,England
Hannah-Louise Graham,F-E-U23,71.3,72,120,125,,125,65,67.5,70,70,150,-165,-165,150,345,2,F,SBD,Single-ply,,,England
Christie Civetta,F-E-Open,83.2,84,180,190,-200,190,115,122.5,127.5,127.5,175,185,-190,185,502.5,1,F,SBD,Single-ply,,SW,England
Sheri Miles,F-E-Open,76.1,84,150,160,170,170,82.5,100,-107.5,100,175,195,200,200,470,2,F,SBD,Single-ply,,SE,England
Jennifer Keane,F-E-M1,82.8,84,190,200,207.5,207.5,100,107.5,-110,107.5,177.5,182.5,-187.5,182.5,497.5,1,F,SBD,Single-ply,,,England
Dawn Morrell,F-E-M2,81.7,84,110,-115,115,115,-70,72.5,75,75,130,135,-137.5,135,325,1,F,SBD,Single-ply,,,England
Melissa Wall,F-E-M2,76.3,84,105,110,-115,110,72.5,-75,75,75,130,-135,-137.5,130,315,2,F,SBD,Single-ply,1966-10-09,,England
Kate Sweatman,F-E-Open,120.3,84+,200,-207.5,-207.5,200,130,140,-150,140,175,185,192.5,192.5,532.5,1,F,SBD,Single-ply,,WM,England
Laura Berry-Webb,F-E-Open,93.7,84+,175,182.5,192.5,192.5,-152.5,-152.5,152.5,152.5,167.5,177.5,-185,177.5,522.5,2,F,SBD,Single-ply,,YNE,England
Kelly Phasey,F-E-M1,129.2,84+,147.5,160,167.5,167.5,135,145,-153,145,140,155,170,170,482.5,1,F,SBD,Single-ply,,WM,England
Michelle Brand #1,F-E-M1,90.7,84+,155,160,165,165,112.5,117.5,120,120,130,135,140,140,425,2,F,SBD,Single-ply,,,England
Jackie Blasbery,F-E-M2,92.1,84+,125,135,140,140,70,80,87.5,87.5,140,155,165,165,392.5,1,F,SBD,Single-ply,1963-10-03,EM,England
John Maxwell,M-E-M2,65.7,66,160,-170,175,175,100,110,-117.5,110,180,195,205,205,490,1,M,SBD,Single-ply,,,England
Michael John James,M-E-M4,65.7,66,140,150,-160,150,100,110,-120,110,-160,165,175,175,435,1,M,SBD,Single-ply,,,England
Roger Powell #1,M-E-M4,63.1,66,-80,80,90,90,50,55,,55,120,-130,130,130,275,2,M,SBD,Single-ply,,,England
Paul Campbell #1,M-E-Open,73.8,74,250,260,-265,260,160,-167.5,167.5,167.5,240,250,260,260,687.5,1,M,SBD,Single-ply,,,England
Tom Chang,M-E-Open,71.4,74,225,240,250,250,-175,175,-182.5,175,230,250,-260,250,675,2,M,SBD,Single-ply,,,England
William Murray #1,M-E-Open,71.9,74,220,232.5,-237.5,232.5,150,155,-160,155,205,215,-220,215,602.5,3,M,SBD,Single-ply,,,England
Phil Richard,M-E-M1,73.9,74,280,295,-305,295,-205,-205,205,205,240,-250,-250,240,740,1,M,SBD,Single-ply,,,England
Bernie McGurk,M-E-M2,73.8,74,232.5,245,-252.5,245,137.5,142.5,-147.5,142.5,-252.5,252.5,270,270,657.5,1,M,SBD,Single-ply,,,England
Allen Ottolangui,M-E-M2,74,74,210,222.5,-230,222.5,125,130,135,135,210,220,,220,577.5,2,M,SBD,Single-ply,,EM,England
Hari Singh Cheema,M-E-M3,73.7,74,-180,-180,-180,,,,,,,,,,,DQ,M,SBD,Single-ply,,WM,England
Stan Macrow,M-E-M4,69.9,74,150,160,170,170,60,65,-70,65,175,185,195,195,430,1,M,SBD,Single-ply,,WM,England
Farris Collins,M-E-U23,92.9,93,250,-260,-265,250,-150,150,-157.5,150,215,-225,-225,215,615,1,M,SBD,Single-ply,,,England
George Seeger,M-E-Open,103.6,105,300,315,325,325,212.5,-217.5,,212.5,310,330,341.5,341.5,879,1,M,SBD,Single-ply,,,England
Joshua Greenfield,M-E-Open,105,105,315,332.5,-342.5,332.5,167.5,177.5,182.5,182.5,280,300,310,310,825,2,M,SBD,Single-ply,,YNE,England
John Hamson,M-E-Open,103.8,105,-340,-350,-362.5,,-220,,,,,,,,,DQ,M,SBD,Single-ply,,,England
David Charnock,M-E-M2,104.2,105,190,210,225,225,135,-145,145,145,200,225,240,240,610,1,M,SBD,Single-ply,,NW,England
Kieran Perry,M-E-U23,98.7,105,250,260,270,270,140,147.5,-152.5,147.5,250,260,265,265,682.5,1,M,SBD,Single-ply,,,England
Aytan Sarisoy,M-E-U23,99.1,105,230,250,-257.5,250,135,145,-152.5,145,250,270,-290,270,665,2,M,SBD,Single-ply,,,England
Tony Cliffe,M-E-Open,117.7,120,-370,370,390,390,260,280,-290,280,300,330,360,360,1030,1,M,SBD,Single-ply,,,England
Chris Farrow,M-E-Open,117.4,120,260,-270,270,270,200,210,-215,210,250,260,275,275,755,2,M,SBD,Single-ply,,NM,England
Paul Burke,M-E-Open,117.8,120,-280,-280,280,280,-180,180,-192.5,180,250,265,-275,265,725,3,M,SBD,Single-ply,,,England
Ian Ryan,M-E-M1,117,120,270,290,-300,290,215,-225,-240,215,220,-252.5,-252.5,220,725,1,M,SBD,Single-ply,1974-08-19,,England
Phil Frost,M-E-M2,119.1,120,245,-260,-260,245,205,210.5,215,215,105,,,105,565,1,M,SBD,Single-ply,1962-07-16,YNE,England
Jack Johnson,M-E-U23,114.2,120,305,317.5,-330,317.5,-260,260,-270,260,300,320,-330,320,897.5,1,M,SBD,Single-ply,,SM,England
Ranbir Singh Sahota,M-E-Open,130.7,120+,350,365,-372.5,365,-210,210,215,215,290,310,-315,310,890,1,M,SBD,Single-ply,,WM,England
James Brincat-Smith,M-E-M1,201.2,120+,300,320,-325,320,220,,,220,230,,,230,770,1,M,SBD,Single-ply,,NM,England
Dylan Davies,M-E-M1,133.5,120+,-250,-250,250,250,185,190,195,195,250,260,-272.5,260,705,2,M,SBD,Single-ply,,,England
Ray Bowring,M-E-U18,132,120+,255,270,280,280,152.5,167.5,180,180,200,225,240,240,700,1,M,SBD,Single-ply,,SM,England
Dean Robertson,M-E-Open,82.7,83,255,270,-275,270,160,170,177.5,177.5,255,-265,265,265,712.5,1,M,SBD,Single-ply,,,England
Khalon Hodson,M-E-Open,83,83,220,232.5,-245,232.5,120,170,-180,170,220,230,,230,632.5,2,M,SBD,Single-ply,,NM,England
Daniel Saunders,M-E-Open,83,83,220,230,-240,230,140,145,150,150,220,225,,225,605,3,M,SBD,Single-ply,,,England
Shaun Haynes,M-E-M1,81.9,83,220,230,250,250,180,-190,190,190,220,230,240,240,680,1,M,SBD,Single-ply,,,England
Jasvinder Singh Cheema,M-E-M1,82,83,215,230,237.5,237.5,192.5,-200,200,200,-210,-210,210,210,647.5,2,M,SBD,Single-ply,,WM,England
Robert Rodney,M-E-M2,80.5,83,180,200,220,220,130,140,,140,270,305,,305,665,1,M,SBD,Raw,,GL,England
Doug D'Gama,M-E-M2,82.5,83,205,220,227.5,227.5,-145,145,-152.5,145,220,237.5,-242.5,237.5,610,2,M,SBD,Single-ply,,,England
George Millar,M-E-M2,82.3,83,200,-210,,200,135,140,145,145,200,215,-217.5,215,560,3,M,SBD,Single-ply,,,England
Karnail Singh,M-E-M3,81.5,83,160,180,200,200,125,130,135,135,180,200,220,220,555,1,M,SBD,Single-ply,,,England
Mick Amey,M-E-M4,80.6,83,175,-190,-190,175,90,100,-105,100,200,220,-225,220,495,1,M,SBD,Single-ply,,,England
Alan Twigg,M-E-M4,80.3,83,125,135,142.5,142.5,112.5,-115,,112.5,160,180,197.5,197.5,452.5,2,M,SBD,Single-ply,,YNE,England
Thomas Morgan,M-E-U23,81.4,83,235,242.5,247.5,247.5,147.5,152.5,155,155,210,222.5,227.5,227.5,630,1,M,SBD,Single-ply,,,England
Robert Palmer #2,M-E-Open,91.4,93,345,-355,-355,345,240,245,250,250,280,290,-300,290,885,1,M,SBD,Single-ply,,,England
Andy Champ,M-E-Open,92.4,93,280,290,300,300,227.5,-235,-235,227.5,270,280,-290,280,807.5,2,M,SBD,Single-ply,,EM,England
Matt Watson #1,M-E-Open,89.2,93,250,260,270,270,175,-185,-185,175,200,215,225,225,670,3,M,SBD,Single-ply,,SW,England
Jason Talbot,M-E-M2,92.5,93,205,215,222.5,222.5,185,192.5,197.5,197.5,200,220,225,225,645,1,M,SBD,Single-ply,1969-01-31,NM,England
Keith Blacknell,M-E-M2,92,93,227.5,240,245,245,-135,140,147.5,147.5,227.5,240,-252.5,240,632.5,2,M,SBD,Single-ply,,,England
TS Adewale,M-E-M2,85.8,93,195,220,-235,220,130,142.5,150,150,230,250,-262.5,250,620,3,M,SBD,Single-ply,,,England
Kevin Jane,M-E-M3,92.4,93,235,250,260,260,145,150,152.5,152.5,240,-255,-255,240,652.5,1,M,SBD,Single-ply,,EM,England
Mick Ellender,M-E-M4,91.9,93,125,135,145,145,110,120,-130,120,190,200,-210,200,465,1,M,SBD,Single-ply,,SE,England
