Division,WeightClassKg,Place,Name,Team,BodyweightKg,Best3SquatKg,Best3BenchKg,Best3DeadliftKg,TotalKg,Equipment,Event,Sex
Boys,51.71,1,Toni Ogunsola,Frisco,51.62,174.63,83.91,172.37,430.91,Single-ply,SBD,M
Boys,51.71,2,JT White,Cedar Hill,51.53,161.03,83.91,181.44,426.38,Single-ply,SBD,M
Boys,51.71,3,Rodney Barnes,Everman,49.26,149.69,77.11,158.76,385.55,Single-ply,SBD,M
Boys,51.71,4,Logan Police,Frisco Wakeland,51.35,142.88,72.57,142.88,358.34,Single-ply,SBD,M
Boys,51.71,5,Mohammad Ali,Mansfield Timberview,47.63,104.33,68.04,131.54,303.91,Single-ply,SBD,M
Boys,55.79,6,Baldemar Carbajal,Sherman,51.8,120.2,61.23,122.47,303.91,Single-ply,SBD,M
Boys,51.71,7,Alejandro Cosio,Fort Worth North Side,51.62,113.4,58.97,122.47,294.84,Single-ply,SBD,M
Boys,51.71,8,Connor Moore #3,White Settlement Brewer,50.62,99.79,61.23,127.01,288.03,Single-ply,SBD,M
Boys,51.71,9,Javier Garcia #5,Lancaster,51.44,95.25,65.77,122.47,283.5,Single-ply,SBD,M
Boys,51.71,10,Damian Tamez,Fort Worth Boswell,49.08,95.25,61.23,124.74,281.23,Single-ply,SBD,M
Boys,51.71,DQ,Robert Parra,Carrollton Creekview,51.62,,,,,Single-ply,SBD,M
Boys,51.71,DQ,Chris Polo,Bishop Lynch,51.62,,,,,Single-ply,SBD,M
Boys,59.87,1,Dominique Moreland,Mansfield Summit,55.97,181.44,95.25,210.92,487.61,Single-ply,SBD,M
Boys,59.87,2,Ashton Williams,Everman,55.88,181.44,92.99,195.04,469.47,Single-ply,SBD,M
Boys,55.79,3,Armani Donaldson,Wichita Falls,55.7,185.97,104.33,176.9,467.2,Single-ply,SBD,M
Boys,59.87,4,Kamary Wiley,Wichita Falls,55.97,163.29,79.38,188.24,430.91,Single-ply,SBD,M
Boys,59.87,5,Dameon Bissant,Cedar Hill,55.97,179.17,83.91,161.03,424.11,Single-ply,SBD,M
Boys,55.79,6,Brandon Thomas,McKinney North,53.98,158.76,74.84,181.44,415.04,Single-ply,SBD,M
Boys,55.79,7,Andrew Wilson,Frisco Wakeland,54.7,151.95,79.38,172.37,403.7,Single-ply,SBD,M
Boys,55.79,8,Tyler Groce,Mansfield Legacy,55.07,158.76,83.91,161.03,403.7,Single-ply,SBD,M
Boys,55.79,9,Gerald Van Ess,McKinney North,55.43,149.69,77.11,145.15,371.95,Single-ply,SBD,M
Boys,59.87,10,DeLonte Christmas,Fort Worth Boswell,55.97,136.08,79.38,133.81,349.27,Single-ply,SBD,M
Boys,55.79,DQ,Devonte Perez,Wichita Falls Rider,55.43,,,,,Single-ply,SBD,M
Boys,59.87,1,Michael Robason,Frisco Wakeland,58.51,217.72,95.25,176.9,489.88,Single-ply,SBD,M
Boys,59.87,2,Tevin Cofield,Mansfield,58.97,183.7,106.59,188.24,478.54,Single-ply,SBD,M
Boys,59.87,3,Matt Castillo,North Mesquite,58.6,167.83,95.25,195.04,458.13,Single-ply,SBD,M
Boys,67.13,4,Avery Carter,Mansfield Summit,60.06,165.56,90.72,199.58,455.86,Single-ply,SBD,M
Boys,59.87,5,Matthew Cortez,Dallas Jesuit,59.69,183.7,102.06,165.56,451.32,Single-ply,SBD,M
Boys,59.87,6,Brandon Durousseaux,Everman,58.42,167.83,111.13,161.03,439.98,Single-ply,SBD,M
Boys,59.87,7,Trent Oliver,Cedar Hill,58.33,156.49,92.99,167.83,417.3,Single-ply,SBD,M
Boys,59.87,8,Rafael Sandoval,Plano John Paul II,58.97,145.15,95.25,161.03,401.43,Single-ply,SBD,M
Boys,59.87,9,Anthony Cuevas,Saginaw,59.78,149.69,92.99,142.88,385.55,Single-ply,SBD,M
Boys,59.87,NS,Demitri Sommer,Lewisville The Colony,,,,,,Single-ply,SBD,M
Boys,59.87,DQ,Joseph Musgrove,Justin Northwest,58.51,,,,,Single-ply,SBD,M
Boys,67.13,1,Aaron Pomerantz,Lewisville Marcus,66.04,235.87,156.49,190.51,582.87,Single-ply,SBD,M
Boys,67.13,2,Essix Lightfoot,Everman,66.86,231.33,113.4,217.72,562.45,Single-ply,SBD,M
Boys,67.13,3,Kenneth Stafford,Everman,66.77,224.53,113.4,222.26,560.19,Single-ply,SBD,M
Boys,67.13,4,Matthew Barrett,Mansfield Summit,64.77,210.92,99.79,233.6,544.31,Single-ply,SBD,M
Boys,67.13,5,Pat White,Lewisville The Colony,66.68,215.46,99.79,229.06,544.31,Single-ply,SBD,M
Boys,67.13,6,Kyle Van Pelt,Mansfield Timberview,62.96,204.12,106.59,199.58,510.29,Single-ply,SBD,M
Boys,67.13,7,Grayson Sneed,Frisco Centennial,66.68,197.31,117.93,195.04,510.29,Single-ply,SBD,M
Boys,67.13,8,Nick Baril,Frisco Centennial,66.41,204.12,117.93,165.56,487.61,Single-ply,SBD,M
Boys,67.13,DQ,Treveon Kindle,Fort Worth Boswell,66.04,176.9,108.86,,,Single-ply,SBD,M
Boys,67.13,DQ,Alex Ramsey,Royse City,65.95,197.31,,,,Single-ply,SBD,M
Boys,74.84,1,John Wrenn,Bishop Lynch,73.66,260.82,149.69,238.14,648.64,Single-ply,SBD,M
Boys,74.84,2,Jarod Hill,Everman,71.58,233.6,129.27,226.8,589.67,Single-ply,SBD,M
Boys,74.84,3,Tumarius Flowers,Mansfield Summit,72.39,215.46,133.81,240.4,589.67,Single-ply,SBD,M
Boys,74.84,4,Colton Baley,Wichita Falls Rider,73.39,231.33,124.74,213.19,569.26,Single-ply,SBD,M
Boys,74.84,5,Brad Sargent,Bishop Lynch,74.75,215.46,124.74,226.8,566.99,Single-ply,SBD,M
Boys,82.1,6,Trevor Wilson,Frisco Centennial,75.02,199.58,124.74,204.12,528.44,Single-ply,SBD,M
Boys,74.84,7,Christian Varela,North Mesquite,73.03,170.1,124.74,231.33,526.17,Single-ply,SBD,M
Boys,74.84,8,Jacob Grand-Lienard,Rockwall-Heath,74.48,190.51,102.06,231.33,523.9,Single-ply,SBD,M
Boys,74.84,9,Kyle Goss,Cedar Hill,71.03,190.51,117.93,208.65,517.1,Single-ply,SBD,M
Boys,74.84,DQ,Preston Young,Dallas Jesuit,73.75,,,,,Single-ply,SBD,M
Boys,82.1,1,Ace Clear,Bishop Lynch,76.2,260.82,136.08,242.67,639.57,Single-ply,SBD,M
Boys,82.1,2,Mason Pierce,Plano John Paul II,80.29,229.06,149.69,249.48,628.23,Single-ply,SBD,M
Boys,82.1,3,Frank Perdomo,Lewisville The Colony,81.1,226.8,136.08,263.08,625.96,Single-ply,SBD,M
Boys,82.1,4,Bacardi Clark,Mesquite Horn,76.93,240.4,124.74,247.21,612.35,Single-ply,SBD,M
Boys,82.1,5,Colton Henslee,Denison,80.92,217.72,129.27,240.4,587.4,Single-ply,SBD,M
Boys,82.1,6,Jad Jabary,Allen,80.29,195.04,151.95,208.65,555.65,Single-ply,SBD,M
Boys,82.1,7,Jacob Parker,Justin Northwest,79.65,215.46,127.01,210.92,553.38,Single-ply,SBD,M
Boys,82.1,8,Brandon Young,Rockwall-Heath,79.92,199.58,147.42,204.12,551.11,Single-ply,SBD,M
Boys,89.81,9,Joel Kabongo,Northwest Nelson,82.28,204.12,113.4,222.26,539.77,Single-ply,SBD,M
Boys,82.1,10,DJ Allen,Fort Worth Boswell,77.56,199.58,117.93,208.65,526.17,Single-ply,SBD,M
Boys,89.81,1,Collin Charles,Frisco Heritage,83.46,272.16,172.37,290.3,734.82,Single-ply,SBD,M
Boys,89.81,2,Cody Duffey,Justin Northwest,88.9,283.5,190.51,240.4,714.41,Single-ply,SBD,M
Boys,89.81,3,Keavin Turner,Cedar Hill,89.45,260.82,131.54,242.67,635.03,Single-ply,SBD,M
Boys,89.81,4,Doveon Dillard,Cedar Hill,86.18,254.01,142.88,231.33,628.23,Single-ply,SBD,M
Boys,89.81,5,Jarod Loftis,Royse City,89.63,249.48,131.54,242.67,623.69,Single-ply,SBD,M
Boys,89.81,6,Thomas Johnson,Royse City,89.36,249.48,145.15,215.46,610.08,Single-ply,SBD,M
Boys,89.81,7,Keith Ngondo,Little Elm,88.27,265.35,115.67,226.8,607.81,Single-ply,SBD,M
Boys,89.81,8,Diego Mejia,Everman,89.09,233.6,133.81,231.33,598.74,Single-ply,SBD,M
Boys,89.81,9,Kendall Adams,Cedar Hill,88.63,224.53,127.01,231.33,582.87,Single-ply,SBD,M
Boys,89.81,DQ,David Portillo,Carrollton Turner,89.45,249.48,,,,Single-ply,SBD,M
Boys,99.79,1,Samuel Amaka,Mansfield Timberview,97.52,283.5,147.42,272.16,703.07,Single-ply,SBD,M
Boys,99.79,2,Jearld McGlothin,Mansfield Summit,98.07,256.28,145.15,285.76,687.19,Single-ply,SBD,M
Boys,99.79,3,Calan Johnson,Cedar Hill,94.53,272.16,170.1,242.67,684.92,Single-ply,SBD,M
Boys,99.79,4,Alejandro Anzaldua,Mansfield Timberview,96.89,278.96,167.83,215.46,662.24,Single-ply,SBD,M
Boys,99.79,5,Gage Shorter,Dallas Highland Park,93.8,233.6,163.29,238.14,635.03,Single-ply,SBD,M
Boys,99.79,6,Shannon Larry,White Settlement Brewer,92.08,254.01,133.81,231.33,619.15,Single-ply,SBD,M
Boys,99.79,7,Landon Hallmark,Little Elm,99.25,231.33,117.93,229.06,578.33,Single-ply,SBD,M
Boys,99.79,8,Joey Clegg,Garland Rowlett,97.98,197.31,142.88,226.8,566.99,Single-ply,SBD,M
Boys,99.79,9,Sam Scribner,Wichita Falls Rider,93.98,197.31,124.74,231.33,553.38,Single-ply,SBD,M
Boys,99.79,DQ,Tyler Carver,Frisco Wakeland,98.52,,,,,Single-ply,SBD,M
Boys,109.77,1,Isaiah Hinton,Lewisville The Colony,103.69,317.51,192.78,283.5,793.79,Single-ply,SBD,M
Boys,109.77,2,Andrew Abamu,Cedar Hill,100.52,258.55,124.74,267.62,650.91,Single-ply,SBD,M
Boys,109.77,3,Jackson Bolin,Rockwall,108.59,231.33,176.9,242.67,650.91,Single-ply,SBD,M
Boys,109.77,4,Orion Rodriguez,Wichita Falls,107.14,258.55,124.74,249.48,632.76,Single-ply,SBD,M
Boys,109.77,5,Josh Heath,Denison,104.78,238.14,142.88,231.33,612.35,Single-ply,SBD,M
Boys,109.77,6,Jack Ceverha,Dallas Highland Park,105.78,240.4,149.69,215.46,605.55,Single-ply,SBD,M
Boys,109.77,7,Jon Molina,Bishop Lynch,105.51,249.48,127.01,219.99,596.47,Single-ply,SBD,M
Boys,109.77,8,Sergio Orona,Denison,105.78,226.8,149.69,219.99,596.47,Single-ply,SBD,M
Boys,109.77,DQ,Andrew Hughes,Royse City,106.23,,,,,Single-ply,SBD,M
Boys,109.77,DQ,John Ford #2,McKinney North,101.6,226.8,,,,Single-ply,SBD,M
Boys,124.74,1,Albert Willingham,Fort Worth Western Hills,122.65,342.46,235.87,247.21,825.54,Single-ply,SBD,M
Boys,124.74,2,Travis Stubblefield,Justin Northwest,117.93,306.17,195.04,244.94,746.16,Single-ply,SBD,M
Boys,124.74+,3,Ethan Dobbs,Rockwall-Heath,124.92,294.84,172.37,263.08,730.28,Single-ply,SBD,M
Boys,124.74,4,Justin Bigelow,Denison,118.66,260.82,185.97,256.28,703.07,Single-ply,SBD,M
Boys,124.74,5,Jaleil Davis,Cedar Hill,123.56,283.5,172.37,233.6,689.46,Single-ply,SBD,M
Boys,124.74,6,Wylie Reinhardt,Saginaw,123.47,265.35,151.95,251.74,669.05,Single-ply,SBD,M
Boys,124.74,7,Korliss Johnson,Cedar Hill,117.21,244.94,136.08,258.55,639.57,Single-ply,SBD,M
Boys,124.74,8,Anthony Zapata,Everman,119.48,265.35,138.35,235.87,639.57,Single-ply,SBD,M
Boys,124.74,DQ,Joe Gonzales,Justin Northwest,113.22,276.69,156.49,,,Single-ply,SBD,M
Boys,124.74,DQ,Ryan Cantrell,Frisco Centennial,113.85,244.94,172.37,,,Single-ply,SBD,M
Boys,124.74+,1,Luke Young,Keller,134.08,335.66,185.97,272.16,793.79,Single-ply,SBD,M
Boys,124.74+,2,Julian Salmond,Fort Worth Western Hills,126.19,301.64,174.63,267.62,743.89,Single-ply,SBD,M
Boys,124.74+,3,Vincent Wurst,Bishop Lynch,145.24,333.39,183.7,226.8,743.89,Single-ply,SBD,M
Boys,124.74+,4,Michael Castle,Lewisville Marcus,141.88,306.17,204.12,215.46,725.75,Single-ply,SBD,M
Boys,124.74+,5,Kevin Blessing,Lewisville Marcus,144.33,310.71,174.63,240.4,725.75,Single-ply,SBD,M
Boys,124.74+,6,Trey Marks,Little Elm,134.08,278.96,154.22,238.14,671.32,Single-ply,SBD,M
Boys,124.74+,7,Blake Cunningham,Denison,149.87,272.16,172.37,226.8,671.32,Single-ply,SBD,M
Boys,124.74+,8,Joe Rosas,Saginaw,146.96,260.82,170.1,195.04,625.96,Single-ply,SBD,M
Boys,124.74+,DQ,Corbin Bullington,Aledo,160.03,,,,,Single-ply,SBD,M
Boys,124.74+,DQ,Dominic Cabrera,Frisco Wakeland,131.36,299.37,147.42,,,Single-ply,SBD,M
