Division,WeightClassKg,Place,Name,Team,BodyweightKg,Best3SquatKg,Best3BenchKg,Best3DeadliftKg,TotalKg,Equipment,Event,Sex
Boys,55.79,1,Jesse Cortez,Pharr Valley View,51.89,156.49,92.99,183.7,433.18,Single-ply,SBD,M
Boys,55.79,2,David Garcia #5,Pharr Valley View,51.89,142.88,81.65,172.37,396.89,Single-ply,SBD,M
Boys,55.79,3,Albert de la Rosa,San Benito,51.89,124.74,86.18,154.22,365.14,Single-ply,SBD,M
Boys,51.71,4,Tuti Garcia,Los Fresnos,49.53,136.08,74.84,136.08,347,Single-ply,SBD,M
Boys,51.71,5,Nathan Carrion,Weslaco,49.53,90.72,43.09,108.86,242.67,Single-ply,SBD,M
Boys,59.87,1,Omar Puente,Los Fresnos,55.84,201.85,129.27,213.19,544.31,Single-ply,SBD,M
Boys,55.79,2,Jerry Lopez,Port Isabel,54.43,199.58,106.59,188.24,494.42,Single-ply,SBD,M
Boys,55.79,3,Luis Vasquez,Los Fresnos,55.2,154.22,92.99,185.97,433.18,Single-ply,SBD,M
Boys,55.79,4,Raul Mata,San Benito,55.25,142.88,90.72,149.69,383.29,Single-ply,SBD,M
Boys,55.79,5,Ben Guajardo,Mission Sharyland,54.25,115.67,77.11,138.35,331.12,Single-ply,SBD,M
Boys,67.13,1,Aaron Robles,San Benito,60.1,183.7,124.74,208.65,517.1,Single-ply,SBD,M
Boys,67.13,2,Jesus Garcia #1,Mission,59.96,195.04,99.79,183.7,478.54,Single-ply,SBD,M
Boys,59.87,3,Joe Ibanez,Brownsville Pace,59.78,165.56,90.72,170.1,426.38,Single-ply,SBD,M
Boys,59.87,4,Victor Acosta,Pharr Valley View,59.6,154.22,90.72,161.03,405.97,Single-ply,SBD,M
Boys,59.87,5,Anthony Gracia,Weslaco,58.69,142.88,79.38,176.9,399.16,Single-ply,SBD,M
Boys,67.13,1,Saul Cuellar,Weslaco East,66.86,217.72,117.93,188.24,523.9,Single-ply,SBD,M
Boys,67.13,2,Carlos Castillo,Los Fresnos,66.95,195.04,115.67,208.65,519.36,Single-ply,SBD,M
Boys,67.13,3,Julio Rodriguez,Raymondville,64.05,174.63,113.4,208.65,496.68,Single-ply,SBD,M
Boys,67.13,4,Kenny Atkinson,Los Fresnos,65.86,170.1,124.74,201.85,496.68,Single-ply,SBD,M
Boys,67.13,5,Jerry Pena,Rio Grande City,66.32,210.92,81.65,192.78,485.34,Single-ply,SBD,M
Boys,67.13,6,James Zaragoza,Raymondville,62.69,174.63,104.33,195.04,474,Single-ply,SBD,M
Boys,67.13,7,Jesse Leyva,Raymondville,67.04,167.83,102.06,195.04,464.93,Single-ply,SBD,M
Boys,74.84,8,Marco Arista,Port Isabel,67.22,170.1,104.33,170.1,444.52,Single-ply,SBD,M
Boys,74.84,9,Lenny Villanueva,Mercedes,67.31,140.61,88.45,192.78,421.84,Single-ply,SBD,M
Boys,67.13,10,Anthony Noyola,San Benito,64.05,149.69,88.45,154.22,392.36,Single-ply,SBD,M
Boys,67.13,11,Andres Trinidad,Brownsville Pace,63.32,129.27,106.59,149.69,385.55,Single-ply,SBD,M
Boys,67.13,12,Pablo Proa,Hidalgo Early College,66.41,147.42,81.65,156.49,385.55,Single-ply,SBD,M
Boys,74.84,13,Albert Medina,Brownsville Pace,67.36,120.2,86.18,122.47,328.85,Single-ply,SBD,M
Boys,74.84,1,Leonard Ramirez,Raymondville,74.84,242.67,170.1,238.14,650.91,Single-ply,SBD,M
Boys,74.84,2,Joe Torres #5,Los Fresnos,74.25,226.8,142.88,219.99,589.67,Single-ply,SBD,M
Boys,74.84,3,Bryan Sanchez,Weslaco East,74.39,213.19,136.08,224.53,573.79,Single-ply,SBD,M
Boys,74.84,4,Alex Lanza,Los Fresnos,72.89,213.19,120.2,235.87,569.26,Single-ply,SBD,M
Boys,74.84,5,Franky Valle,Hidalgo Early College,74.03,215.46,133.81,213.19,562.45,Single-ply,SBD,M
Boys,74.84,6,Marcos Lopez,Donna,72.39,199.58,127.01,195.04,521.63,Single-ply,SBD,M
Boys,74.84,7,Ricardo Vela,Hidalgo Early College,73.57,181.44,117.93,215.46,514.83,Single-ply,SBD,M
Boys,74.84,8,Ivan Rodriguez,Pharr Valley View,73.84,176.9,113.4,172.37,462.66,Single-ply,SBD,M
Boys,74.84,9,Pedro Gonzalez,Port Isabel,73.57,165.56,108.86,183.7,458.13,Single-ply,SBD,M
Boys,74.84,10,Oscar Flores,Brownsville Pace,72.21,165.56,95.25,163.29,424.11,Single-ply,SBD,M
Boys,74.84,11,David Marroquin,Raymondville,68.04,145.15,97.52,163.29,405.97,Single-ply,SBD,M
Boys,89.81,1,Ben Nevarez,Edcouch-Elsa,82.28,242.67,158.76,247.21,648.64,Single-ply,SBD,M
Boys,82.1,2,Erasmo Canales,Rio Grande City,81.83,213.19,174.63,217.72,605.55,Single-ply,SBD,M
Boys,82.1,3,Armin Solis,Rio Grande City,80.74,238.14,147.42,208.65,594.21,Single-ply,SBD,M
Boys,82.1,4,Marco Villarreal,Mission Sharyland,81.1,217.72,147.42,222.26,587.4,Single-ply,SBD,M
Boys,89.81,5,Rick Garza,Mercedes,82.33,226.8,142.88,208.65,578.33,Single-ply,SBD,M
Boys,82.1,6,Alex Melendez,Pharr Valley View,81.83,208.65,124.74,233.6,566.99,Single-ply,SBD,M
Boys,82.1,7,Ram Mendoza,Weslaco East,81.28,217.72,131.54,204.12,553.38,Single-ply,SBD,M
Boys,82.1,8,Gilbert Trevino,Weslaco,80.74,217.72,111.13,195.04,523.9,Single-ply,SBD,M
Boys,82.1,9,Mike Cadena,Donna,81.56,204.12,111.13,192.78,508.02,Single-ply,SBD,M
Boys,82.1,10,Christian Segovia,Mission,81.19,174.63,106.59,183.7,464.93,Single-ply,SBD,M
Boys,82.1,11,Gabriel Alvarado,Brownsville Pace,79.83,158.76,106.59,188.24,453.59,Single-ply,SBD,M
Boys,82.1,12,Karlo Dominguez,Brownsville Pace,77.93,156.49,122.47,154.22,433.18,Single-ply,SBD,M
Boys,82.1,13,Trey Saldana,San Benito,80.74,124.74,108.86,192.78,426.38,Single-ply,SBD,M
Boys,82.1,14,Rolando Martinez,Brownsville Pace,82.01,156.49,88.45,142.88,387.82,Single-ply,SBD,M
Boys,82.1,15,Noah Barba,Rio Grande City,81.83,117.93,72.57,113.4,303.91,Single-ply,SBD,M
Boys,82.1,DQ,Rene Aguilar,Brownsville Lopez,79.65,226.8,136.08,,,Single-ply,SBD,M
Boys,82.1,DQ,Charles Ybarra,Mission,81.19,,,,,Single-ply,SBD,M
Boys,89.81,1,Jerry DeLeon,Weslaco East,89.45,272.16,165.56,226.8,664.51,Single-ply,SBD,M
Boys,89.81,2,Robert Trevino,Edcouch-Elsa,82.83,249.48,127.01,244.94,621.42,Single-ply,SBD,M
Boys,89.81,3,Fernando Rivera #2,Port Isabel,88.72,233.6,149.69,215.46,598.74,Single-ply,SBD,M
Boys,89.81,4,Ryan Navarro,Weslaco East,86.18,235.87,124.74,224.53,585.13,Single-ply,SBD,M
Boys,89.81,5,Christian Brown,Pharr Valley View,86.18,224.53,136.08,224.53,585.13,Single-ply,SBD,M
Boys,89.81,6,Geraldo Perez,Mercedes,87.82,226.8,122.47,222.26,571.53,Single-ply,SBD,M
Boys,89.81,7,Hector Decanini,Weslaco East,87.09,208.65,115.67,195.04,519.36,Single-ply,SBD,M
Boys,89.81,8,Juan Villlarreal,Hidalgo Early College,85.46,181.44,127.01,204.12,512.56,Single-ply,SBD,M
Boys,99.79,9,Ricky Rodrigeuz,San Benito,89.99,176.9,120.2,201.85,498.95,Single-ply,SBD,M
Boys,89.81,10,Cristian Hoshino,Port Isabel,85.09,199.58,113.4,181.44,494.42,Single-ply,SBD,M
Boys,89.81,11,Brandon Lopez,Donna,87,188.24,124.74,181.44,494.42,Single-ply,SBD,M
Boys,89.81,12,Sabas Garcia,Mission,85.82,165.56,117.93,192.78,476.27,Single-ply,SBD,M
Boys,89.81,13,Eddie Garza,Rio Grande City,88.45,167.83,108.86,165.56,442.25,Single-ply,SBD,M
Boys,89.81,14,Pedro Ramos,Brownsville Pace,88.81,167.83,102.06,149.69,419.57,Single-ply,SBD,M
Boys,89.81,15,Mike Rodriguez,Mission,89.72,172.37,88.45,158.76,419.57,Single-ply,SBD,M
Boys,89.81,DQ,Lee Gamez,Mercedes,88.54,224.53,129.27,,,Single-ply,SBD,M
Boys,89.81,DQ,Isaac Martinez,Port Isabel,86.64,185.97,,,,Single-ply,SBD,M
Boys,89.81,DQ,Ricardo Guajardo Jr,Raymondville,83.01,197.31,,,,Single-ply,SBD,M
Boys,89.81,DQ,Jesus Reyna,Weslaco,85.64,188.24,,,,Single-ply,SBD,M
Boys,89.81,DQ,Alejandro Hernandez,Hidalgo Early College,88.09,158.76,102.06,,,Single-ply,SBD,M
Boys,99.79,1,Victor Aguilar #2,Mercedes,91.17,272.16,154.22,258.55,684.92,Single-ply,SBD,M
Boys,109.77,2,Alex Valencia,Los Fresnos,99.88,242.67,170.1,238.14,650.91,Single-ply,SBD,M
Boys,99.79,3,Ray Flores,Weslaco East,95.25,229.06,145.15,238.14,612.35,Single-ply,SBD,M
Boys,99.79,4,AJ Alvarez,Donna,95.53,235.87,138.35,226.8,601.01,Single-ply,SBD,M
Boys,99.79,5,Eli Escaname,Mission Sharyland,99.61,231.33,138.35,206.38,576.06,Single-ply,SBD,M
Boys,99.79,6,Edgar Orteson,Brownsville Lopez,94.8,226.8,131.54,208.65,566.99,Single-ply,SBD,M
Boys,99.79,7,Jesse Coronado,Weslaco,92.44,222.26,136.08,197.31,555.65,Single-ply,SBD,M
Boys,99.79,8,Jesús Torres,Weslaco,91.17,217.72,120.2,210.92,548.85,Single-ply,SBD,M
Boys,99.79,9,Michael Alvarez,Brownsville Pace,95.25,226.8,117.93,185.97,530.7,Single-ply,SBD,M
Boys,99.79,10,Daniel Meave,Weslaco East,97.07,201.85,122.47,181.44,505.76,Single-ply,SBD,M
Boys,99.79,11,Esteban Reyes,Weslaco,97.7,183.7,113.4,188.24,485.34,Single-ply,SBD,M
Boys,99.79,12,Roger Benavides,Rio Grande City,99.16,181.44,113.4,181.44,476.27,Single-ply,SBD,M
Boys,99.79,13,Jose Costantino,Mercedes,90.45,156.49,102.06,163.29,421.84,Single-ply,SBD,M
Boys,109.77,1,Jesus Morales #3,Weslaco East,100.7,285.76,170.1,249.48,705.34,Single-ply,SBD,M
Boys,109.77,2,Patrick Longoria,Weslaco,107.95,272.16,176.9,249.48,698.53,Single-ply,SBD,M
Boys,109.77,3,Julio Rivas,San Benito,101.51,249.48,170.1,260.82,680.39,Single-ply,SBD,M
Boys,109.77,4,Jesus Martinez,Weslaco East,108.86,249.48,147.42,231.33,628.23,Single-ply,SBD,M
Boys,109.77,5,Jose Juarez #5,Weslaco,107.59,233.6,145.15,219.99,598.74,Single-ply,SBD,M
Boys,109.77,6,Robbie Garcia,Mercedes,109.32,233.6,156.49,204.12,594.21,Single-ply,SBD,M
Boys,109.77,7,Cesar Leal,Donna,101.88,188.24,136.08,192.78,517.1,Single-ply,SBD,M
Boys,109.77,8,Jesus Anaya,Weslaco,107.14,204.12,111.13,195.04,510.29,Single-ply,SBD,M
Boys,109.77,9,Frank Alvarez,Port Isabel,107.41,181.44,113.4,206.38,501.22,Single-ply,SBD,M
Boys,109.77,10,Jesus Galaviz,Mission,102.42,172.37,142.88,183.7,498.95,Single-ply,SBD,M
Boys,124.74,11,Jose Gomez,Mercedes,109.95,208.65,99.79,181.44,489.88,Single-ply,SBD,M
Boys,109.77,12,Robert Cervantes,Raymondville,108.5,188.24,127.01,167.83,483.08,Single-ply,SBD,M
Boys,109.77,13,Miguel Matías Guzman Droguett,Mission,104.87,176.9,88.45,183.7,449.06,Single-ply,SBD,M
Boys,124.74,1,Pete Lozano,San Benito,123.83,326.59,185.97,267.62,780.18,Single-ply,SBD,M
Boys,124.74,2,Bobby Gonzales,Raymondville,111.58,317.51,174.63,265.35,757.5,Single-ply,SBD,M
Boys,124.74,3,Jesus Esparza,Pharr Valley View,117.03,274.42,183.7,281.23,739.36,Single-ply,SBD,M
Boys,124.74,4,Keith Mora,Mission Sharyland,124.1,317.51,131.54,208.65,657.71,Single-ply,SBD,M
Boys,124.74,5,Rick Hinojosa,Mercedes,119.75,249.48,163.29,226.8,639.57,Single-ply,SBD,M
Boys,124.74,6,Gabriel Garzoria,Los Fresnos,118.52,215.46,183.7,238.14,637.3,Single-ply,SBD,M
Boys,124.74,7,Gabriel Rodriguez,Edcouch-Elsa,114.12,226.8,163.29,229.06,619.15,Single-ply,SBD,M
Boys,124.74,8,Christian Cardenas,Weslaco East,117.03,226.8,142.88,213.19,582.87,Single-ply,SBD,M
Boys,124.74,9,Ruben Cisneros,Donna,118.3,217.72,113.4,190.51,521.63,Single-ply,SBD,M
Boys,124.74,10,Jaime Moreno,Donna,110.95,213.19,120.2,170.1,503.49,Single-ply,SBD,M
Boys,124.74,11,Rene Perez,Weslaco,118.3,197.31,124.74,181.44,503.49,Single-ply,SBD,M
Boys,124.74,12,Julian Rosales,Rio Grande City,121.74,195.04,92.99,195.04,483.08,Single-ply,SBD,M
Boys,124.74,13,Josh Castillo,Brownsville Pace,112.49,181.44,108.86,167.83,458.13,Single-ply,SBD,M
Boys,124.74,DQ,Gabe Hernandez,Hidalgo Early College,117.93,,,,,Single-ply,SBD,M
Boys,124.74,DQ,Jonathan Castillo,Hidalgo Early College,111.86,204.12,,,,Single-ply,SBD,M
Boys,124.74+,1,Josue Garzoria,Los Fresnos,141.79,272.16,195.04,258.55,725.75,Single-ply,SBD,M
Boys,124.74+,2,Jose Limon,Los Fresnos,142.29,249.48,145.15,249.48,644.1,Single-ply,SBD,M
Boys,124.74+,3,Roy Rendon,Mercedes,127.55,217.72,129.27,213.19,560.19,Single-ply,SBD,M
Boys,124.74+,4,Anselmo Rodriguez,Mission,147.24,165.56,83.91,151.95,401.43,Single-ply,SBD,M
Boys,124.74+,DQ,Jorge Garcia,Pharr Valley View,128.19,278.96,195.04,,,Single-ply,SBD,M
